<?xml version="1.0" encoding="utf-8"?>
<!-- Generator: Adobe Illustrator 19.2.1, SVG Export Plug-In . SVG Version: 6.00 Build 0)  -->
<svg version="1.1" id="mccann-health" xmlns="http://www.w3.org/2000/svg" xmlns:xlink="http://www.w3.org/1999/xlink" x="0px"
	 y="0px" viewBox="0 0 81 25.2" style="enable-background:new 0 0 81 25.2;" xml:space="preserve">
<style type="text/css">
	.st0{fill:#231F20;}
</style>
<title>0_home_logo_mccannhealth</title>
<path class="st0" d="M25.8,8.3V6.2c-0.7-0.4-1.5-0.6-2.3-0.5c-2.9,0-4.9,1.9-4.9,4.7c0,2.8,1.9,4.7,4.7,4.7c0.9,0,1.8-0.2,2.5-0.6
	v-2.3c-0.5,0.7-1.4,1.1-2.3,1.1c-1.7,0-2.8-1.1-2.8-2.9c0-1.8,1.1-2.9,2.7-2.9C24.4,7.4,25.1,7.8,25.8,8.3"/>
<path class="st0" d="M18.1,14.7l-5.2-14l-3,7.7c-0.2,0.6-0.5,1.3-0.6,1.9C9,9.7,8.8,9,8.5,8.3L5.5,0.7l-5.2,14h2.2l2.5-6.9
	c0.3-0.7,0.5-1.4,0.7-2.1c0.2,0.8,0.5,1.5,0.7,2.2l2.8,7.3L11.9,8c0.1-0.2,0.3-1,0.7-2.3c0.2,0.7,0.5,1.4,0.7,2.2l2.5,6.8H18.1
	L18.1,14.7z"/>
<path class="st0" d="M69,14.7h2V5.3c0.4,0.5,0.8,1.1,1.3,1.5l8.7,8.4V1.1h-2v9.4c-0.4-0.6-0.9-1.1-1.4-1.7L69,0.6V14.7z"/>
<path class="st0" d="M54.1,14.7h2V5.3c0.5,0.5,0.9,1,1.4,1.5l8.8,8.4V1.1h-2v9.4c-0.5-0.6-1-1.1-1.5-1.7l-8.6-8.2V14.7z"/>
<path class="st0" d="M39,4.5l0.1-2.2c-1.3-0.9-2.8-1.4-4.4-1.4c-2,0-3.8,0.7-5.1,2c-1.3,1.3-2.1,3.2-2.1,5.1c0,1.9,0.7,3.7,2,5.1
	c1.3,1.3,3.1,2,5.2,2c1.6,0,3.1-0.4,4.2-1.3v-2.4c-1.2,1.1-2.7,1.7-4.3,1.7c-2.7,0-4.7-2.1-4.7-5c0-3,2-5.1,5-5.1
	C36.4,2.9,37.8,3.4,39,4.5"/>
<path class="st0" d="M44.6,9.4l1.4-3.1c0.2-0.5,0.4-1,0.5-1.5c0.1,0.5,0.3,1.1,0.5,1.6l1.4,3.1H44.6z M46.4,0.7l-6.5,14h2.3l1.6-3.4
	h5.4l1.5,3.4H53L46.4,0.7z"/>
<path class="st0" d="M19.3,18.5h1.1V21h3.3v-2.5h1.1v6.7h-1.1V22h-3.3v3.2h-1.1V18.5L19.3,18.5z"/>
<path class="st0" d="M28.2,18.5H32v0.9h-2.6v1.7H32v1h-2.6v2.2H32v1h-3.7V18.5z"/>
<path class="st0" d="M38.9,23.5h-2.6l-0.8,1.7h-1.1l3.2-7l3.2,7h-1.2L38.9,23.5z M38.5,22.6l-0.7-1.5c-0.1-0.3-0.2-0.5-0.3-0.8
	c-0.1,0.3-0.1,0.5-0.2,0.8l-0.7,1.5H38.5L38.5,22.6z"/>
<path class="st0" d="M43.5,18.5h1.1v5.7H47v1h-3.5V18.5z"/>
<path class="st0" d="M52,25.2h-1.1v-5.8h-1.8v-0.9h4.6v0.9H52L52,25.2L52,25.2z"/>
<path class="st0" d="M56.7,18.5h1.1V21H61v-2.5h1.1v6.7H61V22h-3.3v3.2h-1.1V18.5L56.7,18.5z"/>
</svg>
