<?xml version="1.0" encoding="utf-8"?>
<!-- Generator: Adobe Illustrator 19.2.1, SVG Export Plug-In . SVG Version: 6.00 Build 0)  -->
<svg version="1.1" width="39" height="39" id="united-mccann" xmlns="http://www.w3.org/2000/svg" xmlns:xlink="http://www.w3.org/1999/xlink" x="0px"
	 y="0px" viewBox="0 0 39 39" style="enable-background:new 0 0 39 39;" xml:space="preserve">
<title>Vector Smart Object2</title>
<path d="M19.4,0C8.7,0,0,8.7,0,19.4s8.7,19.3,19.4,19.3c10.7,0,19.3-8.7,19.3-19.3C38.7,8.7,30,0,19.4,0C19.4,0,19.4,0,19.4,0
	 M20.2,12.9c0-0.1,0.1-0.2,0.3-0.2h3.4c0.1,0,0.2,0.1,0.3,0.2l1.8,4.7c0,0.1,0.1,0.1,0.2,0.1c0,0,0,0,0.1-0.1l3.9-4.7
	c0.1-0.1,0.2-0.2,0.4-0.2h3.4c0.1,0,0.2,0.1,0.2,0.2c0,0,0,0,0,0l-2.6,12.7c0,0.1-0.1,0.2-0.3,0.2H28c-0.1,0-0.2-0.1-0.2-0.2
	c0,0,0,0,0,0l1.5-7.1c0-0.1,0-0.1-0.1,0L25,23.3c0,0.1-0.1,0.1-0.2,0.2c-0.1-0.1-0.1-0.1-0.1-0.2l-2-4.7c0-0.1-0.1-0.1-0.1,0l-1.5,7
	c0,0.1-0.1,0.2-0.3,0.2h-3.1c-0.1,0-0.2-0.1-0.2-0.2c0,0,0,0,0,0L20.2,12.9z M14.6,12.9c0-0.1,0.1-0.2,0.3-0.2h3.2
	c0.1,0,0.2,0.1,0.2,0.2c0,0,0,0,0,0.1l-1.5,7c-0.9,4.2-3.7,6.1-7.4,6.1c-2.6,0.1-4.8-1.9-4.9-4.6c0-0.5,0-1,0.2-1.4l1.5-7.1
	c0-0.1,0.1-0.2,0.3-0.2h3.2c0.1,0,0.2,0.1,0.2,0.2c0,0,0,0,0,0L8.3,20c-0.4,1.9,0.4,2.8,1.8,2.8c1.5,0,2.8-1.1,3-2.7L14.6,12.9z"/>
</svg>
