<?xml version="1.0" encoding="utf-8"?>
<!-- Generator: Adobe Illustrator 19.2.1, SVG Export Plug-In . SVG Version: 6.00 Build 0)  -->
<svg version="1.1" id="Layer_1" xmlns="http://www.w3.org/2000/svg" xmlns:xlink="http://www.w3.org/1999/xlink" x="0px" y="0px"
	 viewBox="0 0 90 50" style="enable-background:new 0 0 90 50;" xml:space="preserve">
<style type="text/css">
	.st0{fill:#FFFFFF;}
</style>
<polygon class="st0" points="50.9,0 45.1,15.5 38.9,0 30.2,23.4 33.7,23.4 38.9,8.9 45.1,24.2 50.9,8.9 56.5,23.4 59.9,23.4 "/>
<polygon class="st0" points="30.2,26.6 38.9,50 45.1,34.5 50.9,50 59.9,26.6 56.5,26.6 50.9,41.1 45.1,25.8 38.9,41.1 33.7,26.6 "/>
</svg>
