<svg version="1.1"
	 xmlns="http://www.w3.org/2000/svg" xmlns:xlink="http://www.w3.org/1999/xlink" xmlns:a="http://ns.adobe.com/AdobeSVGViewerExtensions/3.0/"
	 x="0px" y="0px" width="32.4px" height="46.6px" viewBox="0 0 32.4 46.6" style="enable-background:new 0 0 32.4 46.6;"
	 xml:space="preserve">
<style type="text/css">
	.st0{fill:#F6EB1F;}
	.st1{fill:none;stroke:#F6EB1F;stroke-width:2;stroke-linejoin:round;stroke-miterlimit:10;}
</style>
<defs>
</defs>
<circle class="st0" cx="16.2" cy="15.2" r="5"/>
<path class="st1" d="M16.2,1C7.8,1,1,7.8,1,16.2c0,2.6,0.7,5.1,1.8,7.2l13.1,22.2l13.7-22.2c1.2-2.1,1.8-4.6,1.8-7.2
	C31.4,7.8,24.6,1,16.2,1L16.2,1z"/>
</svg>
