<?xml version="1.0" encoding="utf-8"?><!--Generator: Adobe Illustrator 19.2.1, SVG Export Plug-In . SVG Version: 6.00 Build 0)--><svg version="1.1" id="momentum" xmlns="http://www.w3.org/2000/svg" xmlns:xlink="http://www.w3.org/1999/xlink" x="0px" y="0px" viewBox="0 0 116 16" style="enable-background:new 0 0 116 16;" xml:space="preserve"><style type="text/css">.st0{fill:#231F20;}</style><title>0_home_logo_momentum</title><path class="st0" d="M115.4,11.2c-0.5,1-1.6,2.5-2.4,2.6c-0.1,0-0.4,0-0.4-0.5c0.1-0.7,0.2-1.4,0.5-2l0.9-2.9
	c0.2-0.8,0.4-1.6,0.5-2.4c0-1.4-0.7-2.2-2.1-2.2c-1.8,0.1-3.4,1.1-4.2,2.7l0.1-1c0-1-0.8-1.7-1.7-1.7c-0.1,0-0.2,0-0.2,0
	c-0.6,0-2.3,0.1-4.1,2.8l0.1-0.9c0.2-1-0.6-1.8-1.4-1.9c-0.1,0-0.2,0-0.3,0c-2.1,0-3.6,2.8-4.1,4.5c0.2,0,0.2,0.1,0.3,0.1
	c0.6-1.5,1.8-2.6,2.5-2.6c0.3,0,0.3,0.6,0.3,0.6c-0.2,1.4-0.6,2.6-1,3.9c0,0-1.4,4.9-1.5,5.2h3.1l1.4-4.1c1-3.3,2.8-5.5,3.8-5.5
	c0.4,0,0.3,0.5,0.2,1l-0.2,0.6c0,0-2.2,7.7-2.4,8.1h3.1c0.2-0.6,1.3-4.1,1.3-4.1c1-3.3,3.2-5.6,4-5.6c0.3,0,0.3,0.3,0.2,0.7
	l-0.1,0.4l-1.4,4.2c-0.3,0.9-0.5,1.7-0.6,2.6c-0.2,1,0.6,1.9,1.6,2c0.1,0,0.2,0,0.3,0c2.9,0,3.9-3,4.5-4.5
	C115.6,11.3,115.5,11.3,115.4,11.2"/><path class="st0" d="M13.5,15.4V8.3c0-1.2-0.2-2-1.3-2C11,6.4,9.7,7.9,9.7,10v5.4H6.8V8.3c0-1.1-0.2-2-1.3-2c-1.4,0-2.5,1.6-2.5,3.7
	v5.4H0V4.2h2.7c0,0.6-0.1,1.4-0.2,2l0,0C3.3,4.9,4.8,4,6.3,4c1.4-0.2,2.8,0.8,3.1,2.2C10.1,4.9,11.5,4,13,4c2.1,0,3.3,1.2,3.3,3.7
	v7.7H13.5L13.5,15.4z"/><path class="st0" d="M23.9,15.7c-3.2,0-5.2-1.7-5.2-5.6c0-3.5,2.3-6,5.7-6c3.2,0,5.2,1.7,5.2,5.6C29.7,13.1,27.3,15.7,23.9,15.7
	 M24.3,6.4c-1.3,0-2.5,1-2.5,3.3s0.8,3.5,2.5,3.5c1.4,0,2.5-1.1,2.5-3.4S25.9,6.4,24.3,6.4"/><path class="st0" d="M45.6,15.4V8.3c0-1.2-0.2-2-1.4-2c-1.3,0-2.5,1.5-2.5,3.7v5.4h-2.9V8.4c0-1.1-0.2-1.9-1.4-1.9
	c-1.4,0-2.5,1.6-2.5,3.7v5.4H32V4.2h2.7c0,0.6-0.1,1.4-0.2,2h0.1c0.6-1.4,2.1-2.3,3.7-2.2c1.4-0.2,2.8,0.8,3.1,2.2
	C42.1,4.9,43.5,4,45.1,4c2.1,0,3.3,1.2,3.3,3.7v7.7H45.6L45.6,15.4z"/><path class="st0" d="M60.7,10.3h-6.9c0,2.1,1,3.1,3.1,3.1c1.1,0,2.2-0.2,3.3-0.7l0.2,2.2c-1.3,0.5-2.6,0.7-4.1,0.7
	c-3.6,0-5.6-1.7-5.6-5.7c0-3.4,1.9-6,5.2-6c3.3,0,4.7,2.2,4.7,5C60.7,9.5,60.7,9.9,60.7,10.3 M56,6.1c-1.2,0-2.1,1-2.2,2.2h4.1
	C58,6.9,57.2,6.1,56,6.1"/><path class="st0" d="M70.1,15.4V8.3c0-1.2-0.3-1.9-1.4-1.9c-1.4,0-2.6,1.7-2.6,3.7v5.4h-2.9V4.2h2.7c0,0.6-0.1,1.4-0.2,2l0,0
	C66.5,4.8,68,3.9,69.6,4c2.5,0,3.3,1.6,3.3,3.6v7.9H70.1L70.1,15.4z"/><path class="st0" d="M79.7,15.7c-2.5,0-3.3-0.9-3.3-3.5V6.4h-1.9V4.2h1.9V0.8L79.3,0v4.2H82v2.2h-2.7v4.9c0,1.4,0.3,1.8,1.4,1.8
	c0.5,0,1-0.1,1.4-0.2v2.3C81.3,15.6,80.5,15.7,79.7,15.7"/><path class="st0" d="M91.4,15.4c0-0.6,0-1.4,0.2-2l0,0c-0.7,1.4-2.2,2.3-3.8,2.2c-2.5,0-3.3-1.6-3.3-3.6V4.2h2.9v7.2
	c0,1.2,0.3,1.9,1.4,1.9c1.4,0,2.6-1.7,2.6-3.7V4.2h2.9v11.2C94.2,15.4,91.4,15.4,91.4,15.4z"/></svg>